Clustering Analysis
…
ord.mat <- comp.cover[comp.attr$h2o %in% selected.water &
                     comp.attr$sp.trt %in% selected.trts &
                     comp.attr$clip %in% selected.clips&
                     comp.attr$fertilization %in% selected.fert,]

ord.att <- comp.attr[comp.attr$h2o %in% selected.water &
                     comp.attr$sp.trt %in% selected.trts &
                     comp.attr$clip %in% selected.clips &
                     comp.attr$fertilization %in% selected.fert,]

ord.att %>% group_by(sp.trt, year) %>% summarise("totalobs" = n())

## # A tibble: 70 x 3
## # Groups:   sp.trt [?]
##    sp.trt   year totalobs
##    <chr>   <int>    <int>
##  1 annuals  2008        8
##  2 annuals  2009        8
##  3 annuals  2010        8
##  4 annuals  2011        8
##  5 annuals  2012        8
##  6 annuals  2013        8
##  7 annuals  2014        8
##  8 annuals  2015        8
##  9 annuals  2016        8
## 10 annuals  2017        8
## # ... with 60 more rows
…
